{
  "name": "Christmas Shop",
  "currency": "ItemId.SNOWBALL_TOKEN_32339",
  "sections": [ { "items": [
    { "id": "ItemId.CANDY_CANE", "price": 25 },
    { "id": "ItemId.BOBBLE_HAT", "price": 25 },
    { "id": "ItemId.BOBBLE_SCARF", "price": 25 },
    { "id": "ItemId.JESTER_HAT", "price": 25 },
    { "id": "ItemId.JESTER_SCARF", "price": 25 },
    { "id": "ItemId.TRI_JESTER_HAT", "price": 25 },
    { "id": "ItemId.TRI_JESTER_SCARF", "price": 25 },
    { "id": "ItemId.WOOLLY_HAT", "price": 25 },
    { "id": "ItemId.WOOLLY_SCARF", "price": 25 },
    { "id": "ItemId.REINDEER_HAT", "price": 50 },
    { "id": "ItemId.SNOW_IMP_COSTUME_HEAD", "price": 25 },
    { "id": "ItemId.SNOW_IMP_COSTUME_BODY", "price": 25 },
    { "id": "ItemId.SNOW_IMP_COSTUME_LEGS", "price": 25 },
    { "id": "ItemId.SNOW_IMP_COSTUME_TAIL", "price": 25 },
    { "id": "ItemId.SNOW_IMP_COSTUME_GLOVES", "price": 25 },
    { "id": "ItemId.SNOW_IMP_COSTUME_FEET", "price": 25 },
    { "id": "ItemId.STAR_FACE", "price": 50 },
    { "id": "ItemId.TREE_TOP", "price": 50 },
    { "id": "ItemId.TREE_SKIRT", "price": 50 },
    { "id": "ItemId.SANTA_MASK", "price": 40 },
    { "id": "ItemId.SANTA_JACKET", "price": 40 },
    { "id": "ItemId.SANTA_PANTALOONS", "price": 40 },
    { "id": "ItemId.SANTA_GLOVES", "price": 40 },
    { "id": "ItemId.SANTA_BOOTS", "price": 40 },
    { "id": "ItemId.ANTISANTA_MASK", "price": 40 },
    { "id": "ItemId.ANTISANTA_JACKET", "price": 40 },
    { "id": "ItemId.ANTISANTA_PANTALOONS", "price": 40 },
    { "id": "ItemId.ANTISANTA_GLOVES", "price": 40 },
    { "id": "ItemId.ANTISANTA_BOOTS", "price": 40 },
    { "id": "ItemId.SACK_OF_PRESENTS", "price": 100 },
    { "id": "ItemId.GIANT_PRESENT", "price": 150 },
    { "id": "ItemId.INVERTED_SANTA_HAT", "price": 500 },
    { "id": "ItemId.BLACK_SANTA_HAT", "price": 500 },
    { "id": "ItemId.SANTA_HAT", "price": 500 },
    { "id": "ItemId.WISE_OLD_MANS_SANTA_HAT", "price": 1000 }
  ] } ]
}
