{
  "name": "Halloween Shop",
  "currency": "ItemId.PUMPKIN_TOKEN_32338",
  "sections": [ { "items": [
    { "id": "ItemId.SKELETON_MASK", "price": 250 },
    { "id": "ItemId.SKELETON_SHIRT", "price": 250 },
    { "id": "ItemId.SKELETON_LEGGINGS", "price": 250 },
    { "id": "ItemId.SKELETON_GLOVES", "price": 50 },
    { "id": "ItemId.SKELETON_BOOTS", "price": 50 },
    { "id": "ItemId.GRAVEDIGGER_MASK", "price": 250 },
    { "id": "ItemId.GRAVEDIGGER_TOP", "price": 250 },
    { "id": "ItemId.GRAVEDIGGER_LEGGINGS", "price": 250 },
    { "id": "ItemId.GRAVEDIGGER_GLOVES", "price": 50 },
    { "id": "ItemId.GRAVEDIGGER_BOOTS", "price": 50 },
    { "id": "ItemId.BANSHEE_MASK", "price": 250 },
    { "id": "ItemId.BANSHEE_TOP", "price": 250 },
    { "id": "ItemId.BANSHEE_ROBE", "price": 250 },
    { "id": "ItemId.CLOWN_MASK", "price": 250 },
    { "id": "ItemId.CLOWN_BOW_TIE", "price": 100 },
    { "id": "ItemId.CLOWN_GOWN", "price": 250 },
    { "id": "ItemId.CLOWN_TROUSERS", "price": 250 },
    { "id": "ItemId.CLOWN_SHOES", "price": 100 },
    { "id": "ItemId.SPOOKY_HOOD", "price": 250 },
    { "id": "ItemId.SPOOKY_ROBE", "price": 250 },
    { "id": "ItemId.SPOOKY_SKIRT", "price": 250 },
    { "id": "ItemId.SPOOKY_GLOVES", "price": 50 },
    { "id": "ItemId.SPOOKY_BOOTS", "price": 50 },
    { "id": "ItemId.SPOOKIER_HOOD", "price": 250 },
    { "id": "ItemId.SPOOKIER_ROBE", "price": 250 },
    { "id": "ItemId.SPOOKIER_SKIRT", "price": 250 },
    { "id": "ItemId.SPOOKIER_GLOVES", "price": 50 },
    { "id": "ItemId.SPOOKIER_BOOTS", "price": 50 },
    { "id": "ItemId.HUNTING_KNIFE", "price": 500 },
    { "id": "ItemId.JACK_LANTERN_MASK", "price": 500 },
    { "id": "ItemId.JONAS_MASK", "price": 500 },
    { "id": "ItemId.GRIM_REAPER_HOOD", "price": 500 },
    { "id": "ItemId.PUMPKIN_LANTERN", "price": 500 },
    { "id": "ItemId.SKELETON_LANTERN", "price": 500 },
    { "id": "ItemId.SCYTHE", "price": 2500 }
  ] } ]
}
