{
  "name": "Warrior Guild Armoury",
  "sellExchangeMultiplier": 1.0,
  "sections": [ { "items": [
    { "id": "ItemId.IRON_BATTLEAXE" },
    { "id": "ItemId.STEEL_BATTLEAXE" },
    { "id": "ItemId.MITHRIL_BATTLEAXE" },
    { "id": "ItemId.BRONZE_SWORD" },
    { "id": "ItemId.IRON_SWORD" },
    { "id": "ItemId.STEEL_SWORD" },
    { "id": "ItemId.BLACK_SWORD" },
    { "id": "ItemId.MITHRIL_SWORD" },
    { "id": "ItemId.ADAMANT_SWORD" },
    { "id": "ItemId.BRONZE_LONGSWORD" },
    { "id": "ItemId.IRON_LONGSWORD" },
    { "id": "ItemId.STEEL_LONGSWORD" },
    { "id": "ItemId.BLACK_LONGSWORD" },
    { "id": "ItemId.MITHRIL_LONGSWORD" },
    { "id": "ItemId.ADAMANT_LONGSWORD" },
    { "id": "ItemId.BRONZE_DAGGER" },
    { "id": "ItemId.IRON_DAGGER" },
    { "id": "ItemId.STEEL_DAGGER" },
    { "id": "ItemId.BLACK_DAGGER" },
    { "id": "ItemId.MITHRIL_DAGGER" },
    { "id": "ItemId.ADAMANT_DAGGER" },
    { "id": "ItemId.BRONZE_MACE" },
    { "id": "ItemId.IRON_MACE" },
    { "id": "ItemId.STEEL_MACE" },
    { "id": "ItemId.MITHRIL_MACE" },
    { "id": "ItemId.ADAMANT_MACE" },
    { "id": "ItemId.BRONZE_2H_SWORD" },
    { "id": "ItemId.IRON_2H_SWORD" },
    { "id": "ItemId.STEEL_2H_SWORD" },
    { "id": "ItemId.BLACK_2H_SWORD" },
    { "id": "ItemId.MITHRIL_2H_SWORD" },
    { "id": "ItemId.ADAMANT_2H_SWORD" },
    { "id": "ItemId.BRONZE_CHAINBODY" },
    { "id": "ItemId.IRON_CHAINBODY" },
    { "id": "ItemId.STEEL_CHAINBODY" },
    { "id": "ItemId.BRONZE_MED_HELM" },
    { "id": "ItemId.IRON_MED_HELM" },
    { "id": "ItemId.STEEL_MED_HELM" }
  ] } ]
}
