{
  "name": "Donator Cosmetic Shop",
  "sections": [ { "items": [
    { "id": "ItemId.BLUE_NAVAL_SHIRT", "price": 10000000 },
    { "id": "ItemId.BLUE_TRICORN_HAT", "price": 5000000 },
    { "id": "ItemId.BLUE_NAVY_SLACKS", "price": 10000000 },
    { "id": "ItemId.GREEN_NAVAL_SHIRT", "price": 10000000 },
    { "id": "ItemId.GREEN_TRICORN_HAT", "price": 5000000 },
    { "id": "ItemId.GREEN_NAVY_SLACKS", "price": 10000000 },
    { "id": "ItemId.RED_NAVAL_SHIRT", "price": 10000000 },
    { "id": "ItemId.RED_TRICORN_HAT", "price": 5000000 },
    { "id": "ItemId.RED_NAVY_SLACKS", "price": 10000000 },
    { "id": "ItemId.BROWN_NAVAL_SHIRT", "price": 10000000 },
    { "id": "ItemId.BROWN_TRICORN_HAT", "price": 5000000 },
    { "id": "ItemId.BROWN_NAVY_SLACKS", "price": 10000000 },
    { "id": "ItemId.BLACK_NAVAL_SHIRT", "price": 10000000 },
    { "id": "ItemId.BLACK_TRICORN_HAT", "price": 5000000 },
    { "id": "ItemId.BLACK_NAVY_SLACKS", "price": 10000000 },
    { "id": "ItemId.PURPLE_NAVAL_SHIRT", "price": 10000000 },
    { "id": "ItemId.PURPLE_TRICORN_HAT", "price": 5000000 },
    { "id": "ItemId.PURPLE_NAVY_SLACKS", "price": 10000000 },
    { "id": "ItemId.GREY_NAVAL_SHIRT", "price": 10000000 },
    { "id": "ItemId.GREY_TRICORN_HAT", "price": 5000000 },
    { "id": "ItemId.GREY_NAVY_SLACKS", "price": 10000000 },
    { "id": "ItemId.NURSE_HAT", "price": 10000000 },
    { "id": "ItemId.DOCTORS_HAT", "price": 10000000 },
    { "id": "ItemId.COW_MASK", "price": 100000000 },
    { "id": "ItemId.COW_TOP", "price": 100000000 },
    { "id": "ItemId.COW_TROUSERS", "price": 100000000 },
    { "id": "ItemId.COW_GLOVES", "price": 100000000 },
    { "id": "ItemId.COW_SHOES", "price": 100000000 }
  ] } ]
}
  