{
  "name": "Equipment Shop",
  "sellExchangeMultiplier": 1.0,
  "sections": [
    {
      "name": "Melee",
      "items": [
        { "id": "ItemId.IRON_DAGGER_P_PLUS_PLUS" },
        { "id": "ItemId.IRON_SWORD" },
        { "id": "ItemId.IRON_SCIMITAR" },
        { "id": "ItemId.IRON_MACE" },
        { "id": "ItemId.IRON_LONGSWORD" },
        { "id": "ItemId.IRON_BATTLEAXE" },
        { "id": "ItemId.IRON_2H_SWORD" },
        { "id": "ItemId.BONE_DAGGER_P_PLUS_PLUS", "price": 2000 },
        { "id": "ItemId.RUNE_DAGGER_P_PLUS_PLUS" },
        { "id": "ItemId.RUNE_SWORD" },
        { "id": "ItemId.RUNE_SCIMITAR" },
        { "id": "ItemId.RUNE_MACE" },
        { "id": "ItemId.RUNE_LONGSWORD" },
        { "id": "ItemId.RUNE_BATTLEAXE" },
        { "id": "ItemId.RUNE_2H_SWORD" },
        { "id": "ItemId.ANCIENT_MACE", "price": 20000 },
        { "id": "ItemId.BRONZE_FULL_HELM" },
        { "id": "ItemId.BRONZE_PLATEBODY" },
        { "id": "ItemId.BRONZE_PLATELEGS" },
        { "id": "ItemId.BRONZE_PLATESKIRT" },
        { "id": "ItemId.BRONZE_KITESHIELD" },
        { "id": "ItemId.BRONZE_BOOTS" },
        { "id": "ItemId.IRON_FULL_HELM" },
        { "id": "ItemId.IRON_PLATEBODY" },
        { "id": "ItemId.IRON_PLATELEGS" },
        { "id": "ItemId.IRON_PLATESKIRT" },
        { "id": "ItemId.IRON_KITESHIELD" },
        { "id": "ItemId.IRON_BOOTS" },
        { "id": "ItemId.STEEL_FULL_HELM" },
        { "id": "ItemId.STEEL_PLATEBODY" },
        { "id": "ItemId.STEEL_PLATELEGS" },
        { "id": "ItemId.STEEL_PLATESKIRT" },
        { "id": "ItemId.STEEL_KITESHIELD" },
        { "id": "ItemId.STEEL_BOOTS" },
        { "id": "ItemId.BLACK_FULL_HELM" },
        { "id": "ItemId.BLACK_PLATEBODY" },
        { "id": "ItemId.BLACK_PLATELEGS" },
        { "id": "ItemId.BLACK_PLATESKIRT" },
        { "id": "ItemId.BLACK_KITESHIELD" },
        { "id": "ItemId.BLACK_BOOTS" },
        { "id": "ItemId.MITHRIL_FULL_HELM" },
        { "id": "ItemId.MITHRIL_PLATEBODY" },
        { "id": "ItemId.MITHRIL_PLATELEGS" },
        { "id": "ItemId.MITHRIL_PLATESKIRT" },
        { "id": "ItemId.MITHRIL_KITESHIELD" },
        { "id": "ItemId.MITHRIL_BOOTS" },
        { "id": "ItemId.INITIATE_SALLET" },
        { "id": "ItemId.INITIATE_HAUBERK" },
        { "id": "ItemId.INITIATE_CUISSE" },
        { "id": "ItemId.ADAMANT_FULL_HELM" },
        { "id": "ItemId.ADAMANT_PLATEBODY" },
        { "id": "ItemId.ADAMANT_PLATELEGS" },
        { "id": "ItemId.ADAMANT_PLATESKIRT" },
        { "id": "ItemId.ADAMANT_KITESHIELD" },
        { "id": "ItemId.ADAMANT_BOOTS" },
        { "id": "ItemId.PROSELYTE_SALLET" },
        { "id": "ItemId.PROSELYTE_HAUBERK" },
        { "id": "ItemId.PROSELYTE_CUISSE" },
        { "id": "ItemId.PROSELYTE_TASSET" },
        { "id": "ItemId.RUNE_FULL_HELM" },
        { "id": "ItemId.RUNE_CHAINBODY" },
        { "id": "ItemId.RUNE_PLATELEGS" },
        { "id": "ItemId.RUNE_PLATESKIRT" },
        { "id": "ItemId.RUNE_KITESHIELD" }
      ]
    },
    {
      "name": "Ranged",
      "items": [
        { "id": "ItemId.SHORTBOW" },
        { "id": "ItemId.MAPLE_SHORTBOW" },
        { "id": "ItemId.IRON_KNIFE", "price": 50 },
        { "id": "ItemId.ADAMANT_KNIFE", "price": 500 },
        { "id": "ItemId.IRON_DART", "price": 25 },
        { "id": "ItemId.ADAMANT_DART", "price": 250 },
        { "id": "ItemId.DORGESHUUN_CROSSBOW", "price": 2000 },
        { "id": "ItemId.IRON_ARROW", "price": 10 },
        { "id": "ItemId.ADAMANT_ARROW", "price": 100 },
        { "id": "ItemId.BONE_BOLTS", "price": 5 },
        { "id": "ItemId.ADAMANT_BOLTS", "price": 500 },
        { "id": "ItemId.ADAMANT_JAVELIN_P_PLUS_PLUS", "price": 250 },
        { "id": "ItemId.BOLT_RACK", "price": 100 },
        { "id": "ItemId.LEATHER_COWL" },
        { "id": "ItemId.LEATHER_BODY" },
        { "id": "ItemId.LEATHER_CHAPS" },
        { "id": "ItemId.LEATHER_VAMBRACES" },
        { "id": "ItemId.HARDLEATHER_BODY" },
        { "id": "ItemId.COIF" },
        { "id": "ItemId.STUDDED_BODY" },
        { "id": "ItemId.STUDDED_CHAPS" },
        { "id": "ItemId.FROG_LEATHER_BODY" },
        { "id": "ItemId.FROG_LEATHER_CHAPS" },
        { "id": "ItemId.FROG_LEATHER_BOOTS" },
        { "id": "ItemId.SNAKESKIN_BANDANA" },
        { "id": "ItemId.SNAKESKIN_BODY" },
        { "id": "ItemId.SNAKESKIN_CHAPS" },
        { "id": "ItemId.SNAKESKIN_VAMBRACES" },
        { "id": "ItemId.SNAKESKIN_BOOTS" },
        { "id": "ItemId.AVAS_ATTRACTOR", "price": 10000 }
      ]
    },
    {
      "name": "Magic",
      "items": [
        { "id": "ItemId.STAFF_OF_AIR" },
        { "id": "ItemId.STAFF_OF_FIRE" },
        { "id": "ItemId.STAFF_OF_WATER" },
        { "id": "ItemId.STAFF_OF_EARTH" },
        { "id": "ItemId.SLAYERS_STAFF" },
        { "id": "ItemId.IBANS_STAFF", "price": 200000 },
        { "id": "ItemId.FIRE_RUNE", "price": 10 },
        { "id": "ItemId.WATER_RUNE", "price": 10 },
        { "id": "ItemId.AIR_RUNE", "price": 10 },
        { "id": "ItemId.EARTH_RUNE", "price": 10 },
        { "id": "ItemId.MIND_RUNE", "price": 10 },
        { "id": "ItemId.CHAOS_RUNE", "price": 100 },
        { "id": "ItemId.NATURE_RUNE", "price": 250 },
        { "id": "ItemId.LAW_RUNE", "price": 250 },
        { "id": "ItemId.ASTRAL_RUNE", "price": 250 },
        { "id": "ItemId.COSMIC_RUNE", "price": 250 },
        { "id": "ItemId.GHOSTLY_HOOD", "price": 5000 },
        { "id": "ItemId.GHOSTLY_ROBE", "price": 5000 },
        { "id": "ItemId.GHOSTLY_ROBE_6108", "price": 5000 },
        { "id": "ItemId.GHOSTLY_CLOAK", "price": 5000 },
        { "id": "ItemId.GHOSTLY_GLOVES", "price": 5000 },
        { "id": "ItemId.GHOSTLY_BOOTS", "price": 5000 },
        { "id": "ItemId.XERICIAN_HAT" },
        { "id": "ItemId.XERICIAN_TOP" },
        { "id": "ItemId.XERICIAN_ROBE" },
        { "id": "ItemId.ELEMENTAL_SHIELD" },
        { "id": "ItemId.MIND_SHIELD" }
      ]
    },
    {
      "name": "Misc",
      "items": [
        { "id": "ItemId.GUIDE_BOOK" },
        { "id": "ItemId.ANTI_DRAGON_SHIELD" },
        { "id": "ItemId.LEATHER_GLOVES" },
        { "id": "ItemId.LEATHER_BOOTS" },
        { "id": "ItemId.BLUE_WIZARD_HAT" },
        { "id": "ItemId.BLUE_WIZARD_ROBE" },
        { "id": "ItemId.BLUE_SKIRT" },
        { "id": "ItemId.WIZARD_HAT" },
        { "id": "ItemId.BLACK_ROBE" },
        { "id": "ItemId.BLACK_SKIRT" },
        { "id": "ItemId.ZAMORAK_MONK_TOP" },
        { "id": "ItemId.ZAMORAK_MONK_BOTTOM" },
        { "id": "ItemId.MONKS_ROBE_TOP" },
        { "id": "ItemId.MONKS_ROBE" },
        { "id": "ItemId.RED_CAPE" },
        { "id": "ItemId.BLACK_CAPE" },
        { "id": "ItemId.BLUE_CAPE" },
        { "id": "ItemId.YELLOW_CAPE" },
        { "id": "ItemId.GREEN_CAPE" },
        { "id": "ItemId.PURPLE_CAPE" },
        { "id": "ItemId.ORANGE_CAPE" },
        { "id": "ItemId.PINK_HAT" },
        { "id": "ItemId.GREEN_HAT" },
        { "id": "ItemId.BLUE_HAT" },
        { "id": "ItemId.CREAM_HAT" },
        { "id": "ItemId.TURQUOISE_HAT" },
        { "id": "ItemId.GREY_HAT" },
        { "id": "ItemId.RED_HAT" },
        { "id": "ItemId.YELLOW_HAT" },
        { "id": "ItemId.TEAL_HAT" },
        { "id": "ItemId.PURPLE_HAT" },
        { "id": "ItemId.FREMENNIK_HAT" },
        { "id": "ItemId.PIRATE_BANDANA" },
        { "id": "ItemId.PIRATE_BANDANA_7124" },
        { "id": "ItemId.PIRATE_BANDANA_7130" },
        { "id": "ItemId.PIRATE_BANDANA_7136" },
        { "id": "ItemId.CLIMBING_BOOTS" },
        { "id": "ItemId.FANCY_BOOTS", "price": 1000 },
        { "id": "ItemId.FIGHTING_BOOTS", "price": 1000 },
        { "id": "ItemId.DESERT_BOOTS" },
        { "id": "ItemId.AMULET_OF_ACCURACY" },
        { "id": "ItemId.AMULET_OF_POWER" }
      ]
    }
  ]
}
