{
  "name": "Tournament Rewards",
  "variableCurrency": "tournament points",
  "sections": [ { "items": [
    { "id": "ItemId.TWISTED_HORNS", "price": 50 },
    { "id": "ItemId.SWIFT_BLADE", "price": 15 },
    { "id": "ItemId.GUTHIXIAN_ICON", "price": 25 },
    { "id": "ItemId.ARMADYL_HALO", "price": 20 },
    { "id": "ItemId.BANDOS_HALO", "price": 20 },
    { "id": "ItemId.SEREN_HALO", "price": 20 },
    { "id": "ItemId.ANCIENT_HALO", "price": 20 },
    { "id": "ItemId.BRASSICA_HALO", "price": 20 },
    { "id": "ItemId.BOLT_RACK", "stack": 200, "price": 1 },
    { "id": "ItemId.ADAMANT_ARROW", "stack": 350, "price": 1 },
    { "id": "ItemId.RUNE_ARROW", "stack": 300, "price": 3 },
    { "id": "ItemId.DRAGONSTONE_BOLTS_E", "stack": 20, "price": 3 },
    { "id": "ItemId.MAGIC_SHORTBOW_I", "price": 5 },
    { "id": "ItemId.CRYSTAL_WEAPON_SEED", "price": 12 },
    { "id": "ItemId.GRANITE_CLAMP", "price": 25 },
    { "id": "ItemId.DRAGON_PICKAXE_UPGRADE_KIT", "price": 14 },
    { "id": "ItemId.WARD_UPGRADE_KIT", "price": 20 },
    { "id": "ItemId.VOLCANIC_WHIP_MIX", "price": 25 },
    { "id": "ItemId.FROZEN_WHIP_MIX", "price": 25 },
    { "id": "ItemId.RUNE_POUCH", "price": 2 },
    { "id": "ItemId.AVAS_ACCUMULATOR", "price": 2 },
    { "id": "ItemId.SARADOMINS_TEAR", "price": 10 }
  ] } ]
}
